…
# Find all content, group by image_name and count,
# sorting by most frequently used image

client <- connect()
client |>
  get_content() |>
  count(image_name) |>
  arrange(desc(n))
```

### Example output

```
# A tibble: 24 × 2
   image_name                                                  n
   <chr>                                                   <int>
 1 NA                                                        927
 2 ghcr.io/rstudio/content-pro:r4.1.3-py3.10.4-bionic        245
 3 ghcr.io/rstudio/content-pro:r3.4.4-py3.6.13-bionic        178
 4 ghcr.io/rstudio/content-pro:r3.2.5-py2.7.18-bionic        156
 5 ghcr.io/rstudio/content-pro:r3.6.3-py2.7.18-bionic        140
 6 ghcr.io/rstudio/content-pro:r3.5.3-py2.7.18-bionic        129
 7 ghcr.io/rstudio/content-pro:r4.0.5-py3.6.13-bionic        104
 8 ghcr.io/rstudio/content-pro:r4.1.3-py3.10.11-ubuntu2204   103
 9 ghcr.io/rstudio/content-pro:r4.1.0-py3.8.8-bionic         100
10 ghcr.io/rstudio/content-pro:r4.2.2-py3.11.3-ubuntu2204     90
# ℹ 14 more rows
# ℹ Use `print(n = ...)` to see more rows
```
…
