…
```{.r}
library(connectapi)
library(purrr)

client <- connect()

response <- client$GET("/v1/system/caches/runtime")
caches_df <- map_dfr(response$caches, ~.x)
```

The data includes information on the language and version of the cache. For Connect servers using [off-host execution](https://docs.posit.co/connect/admin/getting-started/off-host-install/), the `image_name` column includes the name of the execution image. The name `Local` indicates that the cache is for local execution mode.

```{.r}
> caches_df
# A tibble: 23 × 3
   language version image_name
   <chr>    <chr>   <chr>     
 1 R        3.0.2   Local     
 2 R        3.1.0   Local     
 3 R        3.1.2   Local     
 4 R        3.1.3   Local     
 5 R        3.2.0   Local     
 6 R        3.2.1   Local     
 7 R        3.2.2   Local     
 8 R        3.3.3   Local     
 9 R        3.4.0   Local     
10 R        3.4.4   Local     
# ℹ 13 more rows
# ℹ Use `print(n = ...)` to see more rows
```
…
